<svg xmlns="http://www.w3.org/2000/svg" viewBox="0 0 495 447" preserveAspectRatio="xMidYMid meet" style="width: 100%; height: 100%; transform: translate3d(0px, 0px, 0px);"></svg>
  <defs>
    <clipPath id="__lottie_element_2546">
      <rect width="495" height="447" x="0" y="0"></rect>
    </clipPath>
  </defs>
  <g clip-path="url(#__lottie_element_2546)">
    <g transform="matrix(0.8600299954414368,0,0,0.8600000143051147,41.420135498046875,10.950958251953125)" opacity="1" style="display: block;">
      <g opacity="1" transform="matrix(1,0,0,1,242.7030029296875,243.00399780273438)">
        <path fill="rgb(66,95,156)" fill-opacity="1" d=" M242.03500366210938,-201.4149932861328 C242.03500366210938,-201.4149932861328 242.03500366210938,201.375 242.03500366210938,201.375 C242.03500366210938,223.73500061035156 223.7550048828125,242.01499938964844 201.39500427246094,242.01499938964844 C201.39500427246094,242.01499938964844 -201.39500427246094,242.01499938964844 -201.39500427246094,242.01499938964844 C-223.76499938964844,242.01499938964844 -242.03500366210938,223.73500061035156 -242.03500366210938,201.375 C-242.03500366210938,201.375 -242.03500366210938,-201.4149932861328 -242.03500366210938,-201.4149932861328 C-242.03500366210938,-223.73500061035156 -223.76499938964844,-242.01499938964844 -201.39500427246094,-242.01499938964844 C-201.39500427246094,-242.01499938964844 201.39500427246094,-242.01499938964844 201.39500427246094,-242.01499938964844 C223.7550048828125,-242.01499938964844 242.03500366210938,-223.73500061035156 242.03500366210938,-201.4149932861328z"></path>
      </g>
    </g>
    <g transform="matrix(0.75,0,0,0.75,176.74400329589844,115)" opacity="1" style="display: block;">
      <g opacity="1" transform="matrix(1,0,0,1,98.7030029296875,207.3990020751953)">
        <path fill="rgb(253,253,253)" fill-opacity="1" d=" M97.49500274658203,2.1700000762939453 C97.49500274658203,2.1700000762939453 27.78499984741211,2.1700000762939453 27.78499984741211,2.1700000762939453 C27.78499984741211,2.1700000762939453 27.78499984741211,206.6199951171875 27.78499984741211,206.6199951171875 C27.78499984741211,206.6199951171875 -55.73400115966797,206.6199951171875 -55.73400115966797,206.6199951171875 C-55.73400115966797,206.6199951171875 -55.73400115966797,2.1700000762939453 -55.73400115966797,2.1700000762939453 C-55.73400115966797,2.1700000762939453 -97.49500274658203,2.1700000762939453 -97.49500274658203,2.1700000762939453 C-97.49500274658203,2.1700000762939453 -97.49500274658203,-81.30000305175781 -97.49500274658203,-81.30000305175781 C-97.49500274658203,-81.30000305175781 -56.07500076293945,-81.30000305175781 -56.07500076293945,-81.30000305175781 C-56.07500076293945,-81.30000305175781 -56.07500076293945,-119.05999755859375 -56.07500076293945,-119.05999755859375 C-56.07500076293945,-153.2100067138672 -39.775001525878906,-206.6199951171875 31.825000762939453,-206.6199951171875 C31.825000762939453,-206.6199951171875 96.33499908447266,-206.32000732421875 96.33499908447266,-206.32000732421875 C96.33499908447266,-206.32000732421875 96.33499908447266,-134.75999450683594 96.33499908447266,-134.75999450683594 C96.33499908447266,-134.75999450683594 49.494998931884766,-134.75999450683594 49.494998931884766,-134.75999450683594 C41.845001220703125,-134.75999450683594 31.0049991607666,-130.97000122070312 31.0049991607666,-114.72000122070312 C31.0049991607666,-114.72000122070312 31.0049991607666,-81.30000305175781 31.0049991607666,-81.30000305175781 C31.0049991607666,-81.30000305175781 97.36499786376953,-81.30000305175781 97.36499786376953,-81.30000305175781 C97.36499786376953,-81.30000305175781 97.49500274658203,2.1700000762939453 97.49500274658203,2.1700000762939453z"></path>
      </g>
    </g>
    <g transform="matrix(0.7900000214576721,0,0,0.7900000214576721,553.6400146484375,-83.54000091552734)" opacity="1" style="display: block;">
      <g opacity="1" transform="matrix(1,0,0,1,47.92900085449219,48.0369987487793)">
        <path fill="rgb(250,204,23)" fill-opacity="1" d=" M47.005001068115234,-0.019999999552965164 C47.005001068115234,25.95599937438965 25.97599983215332,47.027000427246094 0,47.027000427246094 C-25.974000930786133,47.027000427246094 -47.005001068115234,25.95599937438965 -47.005001068115234,-0.019999999552965164 C-47.005001068115234,-25.9950008392334 -25.974000930786133,-47.027000427246094 0,-47.027000427246094 C25.97599983215332,-47.027000427246094 47.005001068115234,-25.9950008392334 47.005001068115234,-0.019999999552965164z"></path>
      </g>
      <g opacity="1" transform="matrix(1,0,0,1,73.927001953125,38.68299865722656)">
        <path fill="rgb(82,40,19)" fill-opacity="1" d=" M5.0960001945495605,3.2690000534057617 C5.570000171661377,3.569000005722046 6.214000225067139,3.2260000705718994 6.214000225067139,2.6670000553131104 C6.214000225067139,-0.7739999890327454 3.4179999828338623,-3.569000005722046 0.020999999716877937,-3.569000005722046 C-3.4189999103546143,-3.569000005722046 -6.214000225067139,-0.7739999890327454 -6.214000225067139,2.6670000553131104 C-6.214000225067139,3.2260000705718994 -5.570000171661377,3.569000005722046 -5.0970001220703125,3.2690000534057617 C-3.5929999351501465,2.365000009536743 -1.871000051498413,1.8489999771118164 0.020999999716877937,1.8489999771118164 C1.871999979019165,1.8489999771118164 3.5899999141693115,2.365000009536743 5.0960001945495605,3.2690000534057617z"></path>
      </g>
      <g opacity="1" transform="matrix(1,0,0,1,21.933000564575195,38.68299865722656)">
        <path fill="rgb(82,40,19)" fill-opacity="1" d=" M5.0970001220703125,3.2690000534057617 C5.570000171661377,3.569000005722046 6.214000225067139,3.2260000705718994 6.214000225067139,2.6670000553131104 C6.214000225067139,-0.7739999890327454 3.4189999103546143,-3.569000005722046 -0.020999999716877937,-3.569000005722046 C-3.4189999103546143,-3.569000005722046 -6.214000225067139,-0.7739999890327454 -6.214000225067139,2.6670000553131104 C-6.214000225067139,3.2260000705718994 -5.570000171661377,3.569000005722046 -5.0960001945495605,3.2690000534057617 C-3.5910000801086426,2.365000009536743 -1.871000051498413,1.8489999771118164 -0.020999999716877937,1.8489999771118164 C1.8700000047683716,1.8489999771118164 3.5920000076293945,2.365000009536743 5.0970001220703125,3.2690000534057617z"></path>
      </g>
      <g opacity="1" transform="matrix(1,0,0,1,47.92900085449219,62.680999755859375)">
        <path fill="rgb(82,40,19)" fill-opacity="1" d=" M-24.040000915527344,-7.5269999504089355 C-25.54599952697754,-7.010000228881836 -26.40399932861328,-5.377999782562256 -25.80299949645996,-3.9149999618530273 C-22.31999969482422,4.945000171661377 -12.041999816894531,12.428999900817871 0,12.428999900817871 C12.041999816894531,12.428999900817871 22.31999969482422,4.945000171661377 25.80299949645996,-3.9149999618530273 C26.40399932861328,-5.377999782562256 25.54599952697754,-7.010000228881836 24.040000915527344,-7.5269999504089355 C9.505000114440918,-12.428999900817871 -9.505000114440918,-12.428999900817871 -24.040000915527344,-7.5269999504089355z"></path>
      </g>
      <g opacity="1" transform="matrix(1,0,0,1,47.93000030517578,71.43299865722656)">
        <path fill="rgb(201,49,44)" fill-opacity="1" d=" M-12.944999694824219,0.6240000128746033 C-9.071999549865723,2.5160000324249268 -4.688000202178955,3.677999973297119 0,3.677999973297119 C4.689000129699707,3.677999973297119 9.074999809265137,2.5160000324249268 12.944999694824219,0.6240000128746033 C9.37399959564209,-2.0429999828338623 4.9039998054504395,-3.677999973297119 0,-3.677999973297119 C-4.9029998779296875,-3.677999973297119 -9.375,-2.0429999828338623 -12.944999694824219,0.6240000128746033z"></path>
      </g>
    </g>
    <g transform="matrix(0.7900000214576721,0,0,0.7900000214576721,460.4200134277344,-83.54000091552734)" opacity="1" style="display: block;">
      <g opacity="1" transform="matrix(1,0,0,1,47.599998474121094,48.0369987487793)">
        <path fill="rgb(250,204,23)" fill-opacity="1" d=" M47.02799987792969,-0.019999999552965164 C47.02799987792969,25.95599937438965 25.95199966430664,47.027000427246094 -0.023000000044703484,47.027000427246094 C-25.99799919128418,47.027000427246094 -47.02799987792969,25.95599937438965 -47.02799987792969,-0.019999999552965164 C-47.02799987792969,-25.9950008392334 -25.99799919128418,-47.027000427246094 -0.023000000044703484,-47.027000427246094 C25.95199966430664,-47.027000427246094 47.02799987792969,-25.9950008392334 47.02799987792969,-0.019999999552965164z"></path>
      </g>
      <g opacity="1" transform="matrix(1,0,0,1,47.577999114990234,40.231998443603516)">
        <path fill="rgb(35,30,18)" fill-opacity="1" d=" M8.21399974822998,-11.654000282287598 C5.204999923706055,-10.666000366210938 1.5049999952316284,-10.494000434875488 0,-10.45199966430664 C-1.4609999656677246,-10.494000434875488 -5.203000068664551,-10.666000366210938 -8.21399974822998,-11.654000282287598 C-13.932999610900879,-13.54800033569336 -23.136999130249023,-14.75100040435791 -30.145999908447266,-14.579000473022461 C-35.30699920654297,-14.449999809265137 -40.68299865722656,-13.76200008392334 -44.0369987487793,-13.074000358581543 C-45.54199981689453,-12.77299976348877 -46.48899841308594,-11.354000091552734 -46.143001556396484,-9.847999572753906 C-46.143001556396484,-9.847999572753906 -45.80099868774414,-8.343000411987305 -45.80099868774414,-8.343000411987305 C-45.584999084472656,-7.440000057220459 -44.89799880981445,-6.750999927520752 -43.99399948120117,-6.451000213623047 C-43.56399917602539,-6.2789998054504395 -43.13600158691406,-6.020999908447266 -42.96200180053711,-5.505000114440918 C-42.36000061035156,-3.869999885559082 -39.090999603271484,5.71999979019165 -37.327999114990234,9.291000366210938 C-35.867000579833984,12.170999526977539 -31.95199966430664,14.666000366210938 -22.878999710083008,14.708000183105469 C-9.934000015258789,14.75100040435791 -5.460999965667725,6.193999767303467 -3.3970000743865967,0.6880000233650208 C-3.181999921798706,0.0860000029206276 -2.88100004196167,-0.9879999756813049 -2.5789999961853027,-2.062999963760376 C-2.1500000953674316,-3.6110000610351562 -1.2029999494552612,-5.118000030517578 -0.7730000019073486,-5.333000183105469 C-0.5590000152587891,-5.4629998207092285 -0.257999986410141,-5.5920000076293945 0,-5.5920000076293945 C0.30300000309944153,-5.5920000076293945 0.6029999852180481,-5.4629998207092285 0.8610000014305115,-5.333000183105469 C1.2480000257492065,-5.118000030517578 2.1519999504089355,-3.6110000610351562 2.5810000896453857,-2.062999963760376 C2.88100004196167,-0.9879999756813049 3.2269999980926514,0.0860000029206276 3.440000057220459,0.6880000233650208 C5.505000114440918,6.193999767303467 9.979999542236328,14.75100040435791 22.92300033569336,14.708000183105469 C31.996000289916992,14.666000366210938 35.90999984741211,12.170999526977539 37.33000183105469,9.291000366210938 C39.09299850463867,5.71999979019165 42.361000061035156,-3.869999885559082 42.9630012512207,-5.505000114440918 C43.176998138427734,-6.020999908447266 43.61000061035156,-6.2789998054504395 44.03900146484375,-6.451000213623047 C44.89799880981445,-6.750999927520752 45.58700180053711,-7.440000057220459 45.801998138427734,-8.343000411987305 C45.801998138427734,-8.343000411987305 46.145999908447266,-9.847999572753906 46.145999908447266,-9.847999572753906 C46.48899841308594,-11.354000091552734 45.54399871826172,-12.77299976348877 44.08100128173828,-13.074000358581543 C40.72800064086914,-13.76200008392334 35.349998474121094,-14.449999809265137 30.148000717163086,-14.579000473022461 C23.136999130249023,-14.75100040435791 13.934000015258789,-13.54800033569336 8.21399974822998,-11.654000282287598z"></path>
      </g>
      <g opacity="1" transform="matrix(1,0,0,1,70.37100219726562,40.70600128173828)">
        <path fill="rgb(70,59,34)" fill-opacity="1" d=" M-16.72800064086914,-3.569999933242798 C-16.427000045776367,2.7090001106262207 -10.319999694824219,8.729999542236328 -4.644000053405762,10.104999542236328 C3.7850000858306885,12.170000076293945 10.107999801635742,10.366000175476074 13.675999641418457,2.622999906539917 C14.751999855041504,0.3009999990463257 17.073999404907227,-4.77400016784668 16.902000427246094,-7.484000205993652 C16.643999099731445,-12.170000076293945 10.666000366210938,-11.352999687194824 6.881999969482422,-11.4399995803833 C6.451000213623047,-11.4399995803833 -17.072999954223633,-12.128000259399414 -16.72800064086914,-3.569999933242798z"></path>
      </g>
      <g opacity="1" transform="matrix(1,0,0,1,25.065000534057617,40.70600128173828)">
        <path fill="rgb(70,59,34)" fill-opacity="1" d=" M16.70800018310547,-3.569999933242798 C16.405000686645508,2.7090001106262207 10.300000190734863,8.729999542236328 4.623000144958496,10.104999542236328 C-3.806999921798706,12.170000076293945 -10.085000038146973,10.366000175476074 -13.696999549865723,2.622999906539917 C-14.772000312805176,0.3009999990463257 -17.052000045776367,-4.77400016784668 -16.92300033569336,-7.484000205993652 C-16.665000915527344,-12.170000076293945 -10.687999725341797,-11.352999687194824 -6.9029998779296875,-11.4399995803833 C-6.473999977111816,-11.4399995803833 17.052000045776367,-12.128000259399414 16.70800018310547,-3.569999933242798z"></path>
      </g>
      <g opacity="1" transform="matrix(1,0,0,1,63.6619987487793,65.36900329589844)">
        <path fill="rgb(82,40,19)" fill-opacity="1" d=" M-6.019999980926514,6.730999946594238 C-7.26800012588501,6.730999946594238 -8.557999610900879,6.6020002365112305 -9.847999572753906,6.428999900817871 C-11.095000267028809,6.2129998207092285 -11.956000328063965,5.052999973297119 -11.782999992370605,3.805000066757202 C-11.611000061035156,2.559000015258789 -10.449999809265137,1.6990000009536743 -9.159000396728516,1.871000051498413 C-1.8919999599456787,2.946000099182129 4.558000087738037,0.19499999284744263 7.310999870300293,-5.138999938964844 C7.869999885559082,-6.25600004196167 9.246999740600586,-6.730999946594238 10.407999992370605,-6.127999782562256 C11.526000022888184,-5.570000171661377 11.956000328063965,-4.192999839782715 11.395999908447266,-3.0309998989105225 C8.258000373840332,3.118000030517578 1.6349999904632568,6.730999946594238 -6.019999980926514,6.730999946594238z"></path>
      </g>
    </g>
    <g transform="matrix(0.7900000214576721,0,0,0.7900000214576721,366.4100036621094,-83.54000091552734)" opacity="1" style="display: block;">
      <g opacity="1" transform="matrix(1,0,0,1,47.92599868774414,48.0369987487793)">
        <path fill="rgb(250,204,23)" fill-opacity="1" d=" M47.00600051879883,-0.019999999552965164 C47.00600051879883,25.95599937438965 25.97599983215332,47.027000427246094 0,47.027000427246094 C-25.97599983215332,47.027000427246094 -47.00600051879883,25.95599937438965 -47.00600051879883,-0.019999999552965164 C-47.00600051879883,-25.9950008392334 -25.97599983215332,-47.027000427246094 0,-47.027000427246094 C25.97599983215332,-47.027000427246094 47.00600051879883,-25.9950008392334 47.00600051879883,-0.019999999552965164z"></path>
      </g>
      <g opacity="1" transform="matrix(1,0,0,1,49.430999755859375,63.77799987792969)">
        <path fill="rgb(82,40,19)" fill-opacity="1" d=" M-2.2360000610351562,5.913000106811523 C-2.9230000972747803,5.913000106811523 -3.569999933242798,5.395999908447266 -3.6989998817443848,4.709000110626221 C-3.8269999027252197,3.934999942779541 -3.312000036239624,3.1600000858306885 -2.49399995803833,3.0309998989105225 C-0.902999997138977,2.7290000915527344 1.8919999599456787,1.3530000448226929 2.4070000648498535,-0.06599999964237213 C2.5360000133514404,-0.3659999966621399 2.5799999237060547,-0.753000020980835 2.065000057220459,-1.3980000019073486 C1.0750000476837158,-2.6459999084472656 -1.6759999990463257,-1.3980000019073486 -3.140000104904175,-0.3230000138282776 C-3.7850000858306885,0.1509999930858612 -4.730999946594238,0.020999999716877937 -5.203000068664551,-0.6660000085830688 C-5.676000118255615,-1.312000036239624 -5.505000114440918,-2.2149999141693115 -4.859000205993652,-2.687999963760376 C-1.8489999771118164,-4.881999969482422 2.194000005722046,-5.913000106811523 4.343999862670898,-3.2039999961853027 C5.677000045776367,-1.5260000228881836 5.547999858856201,-0.023000000044703484 5.160999774932861,0.9670000076293945 C4.041999816894531,3.934999942779541 -0.12999999523162842,5.567999839782715 -1.9789999723434448,5.869999885559082 C-1.9789999723434448,5.869999885559082 -2.2360000610351562,5.913000106811523 -2.2360000610351562,5.913000106811523z"></path>
      </g>
      <g opacity="1" transform="matrix(1,0,0,1,49.430999755859375,72.0770034790039)">
        <path fill="rgb(82,40,19)" fill-opacity="1" d=" M0.8169999718666077,5.440000057220459 C-1.0750000476837158,5.440000057220459 -3.1410000324249268,4.581999778747559 -4.860000133514404,3.2920000553131104 C-5.505000114440918,2.816999912261963 -5.676000118255615,1.9160000085830688 -5.203000068664551,1.2680000066757202 C-4.730999946594238,0.625 -3.7850000858306885,0.453000009059906 -3.140000104904175,0.9240000247955322 C-1.6759999990463257,2.0439999103546143 1.0740000009536743,3.2909998893737793 2.063999891281128,2 C2.5799999237060547,1.3550000190734863 2.5369999408721924,0.9679999947547913 2.4070000648498535,0.6669999957084656 C1.8919999599456787,-0.7509999871253967 -0.902999997138977,-2.128999948501587 -2.49399995803833,-2.428999900817871 C-3.312000036239624,-2.559000015258789 -3.8269999027252197,-3.2890000343322754 -3.6989998817443848,-4.10699987411499 C-3.5269999504089355,-4.880000114440918 -2.7950000762939453,-5.440999984741211 -1.9800000190734863,-5.269000053405762 C-0.12999999523162842,-4.966000080108643 4.041999816894531,-3.3310000896453857 5.160999774932861,-0.36500000953674316 C5.546999931335449,0.625 5.677000045776367,2.171999931335449 4.343999862670898,3.806999921798706 C3.441999912261963,4.9679999351501465 2.194000005722046,5.440000057220459 0.8169999718666077,5.440000057220459z"></path>
      </g>
      <g opacity="1" transform="matrix(1,0,0,1,66.24600219726562,45.887001037597656)">
        <path fill="rgb(82,40,19)" fill-opacity="1" d=" M-5.416999816894531,4.451000213623047 C-6.020999908447266,4.451000213623047 -6.579999923706055,4.192999839782715 -7.052000045776367,3.765000104904175 C-7.955999851226807,2.859999895095825 -7.955999851226807,1.3980000019073486 -7.052000045776367,0.4959999918937683 C-4.214000225067139,-2.299999952316284 1.8919999599456787,-4.665999889373779 7.052999973297119,0.4959999918937683 C7.955999851226807,1.3980000019073486 7.955999851226807,2.859999895095825 7.052999973297119,3.765000104904175 C6.14900016784668,4.666999816894531 4.685999870300293,4.666999816894531 3.7839999198913574,3.765000104904175 C0.08500000089406967,0.06499999761581421 -3.3959999084472656,3.375999927520752 -3.7829999923706055,3.765000104904175 C-4.256999969482422,4.192999839782715 -4.815000057220459,4.451000213623047 -5.416999816894531,4.451000213623047z"></path>
      </g>
      <g opacity="1" transform="matrix(1,0,0,1,30.400999069213867,46.638999938964844)">
        <path fill="rgb(82,40,19)" fill-opacity="1" d=" M4.9679999351501465,0 C4.9679999351501465,3.569000005722046 2.7300000190734863,6.493000030517578 -0.019999999552965164,6.493000030517578 C-2.7730000019073486,6.493000030517578 -4.9679999351501465,3.569000005722046 -4.9679999351501465,0 C-4.9679999351501465,-3.6110000610351562 -2.7730000019073486,-6.493000030517578 -0.019999999552965164,-6.493000030517578 C2.7300000190734863,-6.493000030517578 4.9679999351501465,-3.6110000610351562 4.9679999351501465,0z"></path>
      </g>
      <g opacity="1" transform="matrix(1,0,0,1,80.52400207519531,69.00299835205078)">
        <path fill="rgb(201,49,44)" fill-opacity="1" d=" M0.6880000233650208,-5.333000183105469 C14.494999885559082,-11.82699966430664 19.136999130249023,3.740000009536743 11.223999977111816,10.406000137329102 C4.988999843597412,15.609000205993652 -8.729999542236328,19.35300064086914 -8.729999542236328,19.35300064086914 C-9.461000442504883,18.232999801635742 -16.513999938964844,7.438000202178955 -17.674999237060547,-0.6039999723434448 C-19.13800048828125,-10.880000114440918 -5.289000034332275,-19.35300064086914 0.6880000233650208,-5.333000183105469z"></path>
      </g>
      <g opacity="1" transform="matrix(1,0,0,1,25.413000106811523,27.2450008392334)">
        <path fill="rgb(82,40,19)" fill-opacity="1" d=" M-5.783999919891357,6.664999961853027 C-5.783999919891357,6.664999961853027 -5.872000217437744,6.664999961853027 -5.872000217437744,6.664999961853027 C-6.603000164031982,6.623000144958496 -7.159999847412109,5.97599983215332 -7.117000102996826,5.244999885559082 C-6.860000133514404,2.0190000534057617 -5.396999835968018,-1.0750000476837158 -2.989000082015991,-3.2249999046325684 C-0.6240000128746033,-5.420000076293945 2.558000087738037,-6.664999961853027 5.827000141143799,-6.579999923706055 C6.559000015258789,-6.535999774932861 7.160999774932861,-5.934999942779541 7.117000102996826,-5.202000141143799 C7.117000102996826,-4.473999977111816 6.515999794006348,-3.828000068664551 5.7829999923706055,-3.9140000343322754 C3.246999979019165,-3.9140000343322754 0.6660000085830688,-3.010999917984009 -1.225000023841858,-1.2899999618530273 C-3.118000030517578,0.4300000071525574 -4.2779998779296875,2.881999969482422 -4.449999809265137,5.460999965667725 C-4.5370001792907715,6.150000095367432 -5.0970001220703125,6.664999961853027 -5.783999919891357,6.664999961853027z"></path>
      </g>
      <g opacity="1" transform="matrix(1,0,0,1,67.08499908447266,36.770999908447266)">
        <path fill="rgb(82,40,19)" fill-opacity="1" d=" M6.171999931335449,3.2039999961853027 C5.869999885559082,3.2039999961853027 5.568999767303467,3.075000047683716 5.311999797821045,2.9030001163482666 C1.7410000562667847,-0.06599999964237213 -1.9570000171661377,-0.3659999966621399 -5.354000091552734,2.0420000553131104 C-5.955999851226807,2.4730000495910645 -6.7729997634887695,2.3429999351501465 -7.202000141143799,1.7410000562667847 C-7.632999897003174,1.1820000410079956 -7.504000186920166,0.32100000977516174 -6.9019999504089355,-0.10899999737739563 C-2.558000087738037,-3.2039999961853027 2.5160000324249268,-2.859999895095825 6.988999843597412,0.8370000123977661 C7.591000080108643,1.312000036239624 7.632999897003174,2.128000020980835 7.203999996185303,2.7290000915527344 C6.9019999504089355,3.0320000648498535 6.559999942779541,3.2039999961853027 6.171999931335449,3.2039999961853027z"></path>
      </g>
    </g>
    <g transform="matrix(0.7900000214576721,0,0,0.7900000214576721,271.6099853515625,-83.54000091552734)" opacity="1" style="display: block;">
      <g opacity="1" transform="matrix(1,0,0,1,49.91899871826172,48.0369987487793)">
        <path fill="rgb(250,204,23)" fill-opacity="1" d=" M47.005001068115234,-0.019999999552965164 C47.005001068115234,25.95599937438965 25.97599983215332,47.027000427246094 0,47.027000427246094 C-25.974000930786133,47.027000427246094 -47.005001068115234,25.95599937438965 -47.005001068115234,-0.019999999552965164 C-47.005001068115234,-25.9950008392334 -25.974000930786133,-47.027000427246094 0,-47.027000427246094 C25.97599983215332,-47.027000427246094 47.005001068115234,-25.9950008392334 47.005001068115234,-0.019999999552965164z"></path>
      </g>
      <g opacity="1" transform="matrix(1,0,0,1,78.12999725341797,27.458999633789062)">
        <path fill="rgb(201,49,44)" fill-opacity="1" d=" M0.5609999895095825,-6.4079999923706055 C-7.093999862670898,-21.02899932861328 -21.288999557495117,-10.666000366210938 -18.836000442504883,0.257999986410141 C-16.858999252319336,8.859000205993652 -7.438000202178955,21.02899932861328 -7.438000202178955,21.02899932861328 C-6.061999797821045,20.558000564575195 7.053999900817871,15.826000213623047 13.333000183105469,9.633000373840332 C21.288999557495117,1.7630000114440918 14.881999969482422,-14.621999740600586 0.5609999895095825,-6.4079999923706055z"></path>
      </g>
      <g opacity="1" transform="matrix(1,0,0,1,21.70800018310547,27.458999633789062)">
        <path fill="rgb(201,49,44)" fill-opacity="1" d=" M-0.5600000023841858,-6.4079999923706055 C7.09499979019165,-21.02899932861328 21.288999557495117,-10.666000366210938 18.836000442504883,0.257999986410141 C16.858999252319336,8.859000205993652 7.438000202178955,21.02899932861328 7.438000202178955,21.02899932861328 C6.061999797821045,20.558000564575195 -7.053999900817871,15.826000213623047 -13.333000183105469,9.633000373840332 C-21.288999557495117,1.7630000114440918 -14.880000114440918,-14.621999740600586 -0.5600000023841858,-6.4079999923706055z"></path>
      </g>
      <g opacity="1" transform="matrix(1,0,0,1,49.91899871826172,65.41100311279297)">
        <path fill="rgb(82,40,19)" fill-opacity="1" d=" M-17.15999984741211,-7.934000015258789 C-18.36199951171875,-8.322999954223633 -19.437999725341797,-7.074999809265137 -19.094999313354492,-5.697999954223633 C-17.072999954223633,2.3429999351501465 -9.333000183105469,8.322999954223633 0,8.322999954223633 C9.289999961853027,8.322999954223633 17.072999954223633,2.3429999351501465 19.094999313354492,-5.697999954223633 C19.43899917602539,-7.074999809265137 18.36199951171875,-8.322999954223633 17.15999984741211,-7.934000015258789 C12,-6.214000225067139 6.192999839782715,-5.269000053405762 0,-5.269000053405762 C-6.191999912261963,-5.269000053405762 -11.998000144958496,-6.214000225067139 -17.15999984741211,-7.934000015258789z"></path>
      </g>
      <g opacity="1" transform="matrix(1,0,0,1,49.91899871826172,69.64900207519531)">
        <path fill="rgb(201,49,44)" fill-opacity="1" d=" M0,-4.085000038146973 C-4.085999965667725,-4.085000038146973 -7.611999988555908,-1.5920000076293945 -9.15999984741211,1.9769999980926514 C-6.4079999923706055,3.309999942779541 -3.311000108718872,4.085000038146973 0,4.085000038146973 C3.311000108718872,4.085000038146973 6.4070000648498535,3.309999942779541 9.15999984741211,1.9769999980926514 C7.611000061035156,-1.5920000076293945 4.085999965667725,-4.085000038146973 0,-4.085000038146973z"></path>
      </g>
    </g>
    <g transform="matrix(0.7900000214576721,0,0,0.7900000214576721,179.97000122070312,-83.54000091552734)" opacity="1" style="display: block;">
      <g opacity="1" transform="matrix(1,0,0,1,47.5890007019043,48.0369987487793)">
        <path fill="rgb(250,204,23)" fill-opacity="1" d=" M47.027000427246094,-0.019999999552965164 C47.027000427246094,25.95599937438965 25.954999923706055,47.027000427246094 -0.02199999988079071,47.027000427246094 C-25.996999740600586,47.027000427246094 -47.027000427246094,25.95599937438965 -47.027000427246094,-0.019999999552965164 C-47.027000427246094,-25.9950008392334 -25.996999740600586,-47.027000427246094 -0.02199999988079071,-47.027000427246094 C25.954999923706055,-47.027000427246094 47.027000427246094,-25.9950008392334 47.027000427246094,-0.019999999552965164z"></path>
      </g>
      <g opacity="1" transform="matrix(1,0,0,1,69.73699951171875,38.68299865722656)">
        <path fill="rgb(82,40,19)" fill-opacity="1" d=" M5.0960001945495605,3.2690000534057617 C5.570000171661377,3.569000005722046 6.214000225067139,3.2260000705718994 6.214000225067139,2.6670000553131104 C6.214000225067139,-0.7739999890327454 3.4619998931884766,-3.569000005722046 0.020999999716877937,-3.569000005722046 C-3.4189999103546143,-3.569000005722046 -6.214000225067139,-0.7739999890327454 -6.214000225067139,2.6670000553131104 C-6.214000225067139,3.2260000705718994 -5.570000171661377,3.569000005722046 -5.053999900817871,3.2690000534057617 C-3.5920000076293945,2.365000009536743 -1.871000051498413,1.8489999771118164 0.020999999716877937,1.8489999771118164 C1.8700000047683716,1.8489999771118164 3.634000062942505,2.365000009536743 5.0960001945495605,3.2690000534057617z"></path>
      </g>
      <g opacity="1" transform="matrix(1,0,0,1,25.39900016784668,38.68299865722656)">
        <path fill="rgb(82,40,19)" fill-opacity="1" d=" M5.0960001945495605,3.2690000534057617 C5.568999767303467,3.569000005722046 6.215000152587891,3.2260000705718994 6.215000152587891,2.6670000553131104 C6.215000152587891,-0.7739999890327454 3.4619998931884766,-3.569000005722046 0.02199999988079071,-3.569000005722046 C-3.4189999103546143,-3.569000005722046 -6.215000152587891,-0.7739999890327454 -6.215000152587891,2.6670000553131104 C-6.215000152587891,3.2260000705718994 -5.570000171661377,3.569000005722046 -5.054999828338623,3.2690000534057617 C-3.5920000076293945,2.365000009536743 -1.871999979019165,1.8489999771118164 0.02199999988079071,1.8489999771118164 C1.8700000047683716,1.8489999771118164 3.632999897003174,2.365000009536743 5.0960001945495605,3.2690000534057617z"></path>
      </g>
      <g opacity="1" transform="matrix(1,0,0,1,47.5890007019043,63.15399932861328)">
        <path fill="rgb(82,40,19)" fill-opacity="1" d=" M0.2370000034570694,6.2789998054504395 C-7.632999897003174,6.2789998054504395 -15.416999816894531,3.2249999046325684 -21.13800048828125,-2.063999891281128 C-22.040000915527344,-2.9240000247955322 -22.08300018310547,-4.38700008392334 -21.224000930786133,-5.289000034332275 C-20.363000869750977,-6.236999988555908 -18.900999069213867,-6.2789998054504395 -17.999000549316406,-5.416999816894531 C-13.138999938964844,-0.902999997138977 -6.4720001220703125,1.6770000457763672 0.2370000034570694,1.6770000457763672 C6.730999946594238,1.6770000457763672 13.182000160217285,-0.7310000061988831 17.99799919128418,-4.988999843597412 C18.944000244140625,-5.849999904632568 20.4060001373291,-5.76200008392334 21.267000198364258,-4.816999912261963 C22.08300018310547,-3.86899995803833 21.996999740600586,-2.4089999198913574 21.052000045776367,-1.5479999780654907 C15.331999778747559,3.4830000400543213 7.934000015258789,6.2789998054504395 0.2370000034570694,6.2789998054504395z"></path>
      </g>
    </g>
    <g transform="matrix(0.7900000214576721,0,0,0.7900000214576721,85.95999145507812,-83.54000091552734)" opacity="1" style="display: block;">
      <g opacity="1" transform="matrix(1,0,0,1,48.237998962402344,48.0369987487793)">
        <path fill="rgb(250,204,23)" fill-opacity="1" d=" M47.027000427246094,-0.019999999552965164 C47.027000427246094,25.95599937438965 25.99799919128418,47.027000427246094 0.023000000044703484,47.027000427246094 C-25.95199966430664,47.027000427246094 -47.027000427246094,25.95599937438965 -47.027000427246094,-0.019999999552965164 C-47.027000427246094,-25.9950008392334 -25.95199966430664,-47.027000427246094 0.023000000044703484,-47.027000427246094 C25.99799919128418,-47.027000427246094 47.027000427246094,-25.9950008392334 47.027000427246094,-0.019999999552965164z"></path>
      </g>
      <g opacity="1" transform="matrix(1,0,0,1,27.594999313354492,43.779998779296875)">
        <path fill="rgb(82,40,19)" fill-opacity="1" d=" M6.041999816894531,2.6019999980926514 C6.386000156402588,2.816999912261963 6.7729997634887695,2.5169999599456787 6.686999797821045,2.128000020980835 C6.127999782562256,-0.7089999914169312 3.375,-2.816999912261963 -0.020999999716877937,-2.816999912261963 C-3.375,-2.816999912261963 -6.171999931335449,-0.7089999914169312 -6.730000019073486,2.128000020980835 C-6.7729997634887695,2.5169999599456787 -6.38700008392334,2.816999912261963 -6.085999965667725,2.6019999980926514 C-4.366000175476074,1.656000018119812 -2.259000062942505,1.0540000200271606 -0.020999999716877937,1.0540000200271606 C2.256999969482422,1.0540000200271606 4.322000026702881,1.656000018119812 6.041999816894531,2.6019999980926514z"></path>
      </g>
      <g opacity="1" transform="matrix(1,0,0,1,66.7300033569336,40.941001892089844)">
        <path fill="rgb(253,253,253)" fill-opacity="1" d=" M12.965999603271484,0.02199999988079071 C12.965999603271484,7.160999774932861 7.160999774932861,12.96500015258789 -0.020999999716877937,12.96500015258789 C-7.159999847412109,12.96500015258789 -12.965999603271484,7.160999774932861 -12.965999603271484,0.02199999988079071 C-12.965999603271484,-7.159999847412109 -7.159999847412109,-12.96500015258789 -0.020999999716877937,-12.96500015258789 C7.160999774932861,-12.96500015258789 12.965999603271484,-7.159999847412109 12.965999603271484,0.02199999988079071z"></path>
      </g>
      <g opacity="1" transform="matrix(1,0,0,1,66.70800018310547,40.9630012512207)">
        <path fill="rgb(82,40,19)" fill-opacity="1" d=" M5.0320000648498535,0 C5.0320000648498535,2.752000093460083 2.7960000038146973,5.031000137329102 0,5.031000137329102 C-2.753000020980835,5.031000137329102 -5.0320000648498535,2.752000093460083 -5.0320000648498535,0 C-5.0320000648498535,-2.7950000762939453 -2.753000020980835,-5.031000137329102 0,-5.031000137329102 C2.7960000038146973,-5.031000137329102 5.0320000648498535,-2.7950000762939453 5.0320000648498535,0z"></path>
      </g>
      <g opacity="1" transform="matrix(1,0,0,1,48.23899841308594,67.66999816894531)">
        <path fill="rgb(82,40,19)" fill-opacity="1" d=" M-20.577999114990234,-7.743000030517578 C-22.42799949645996,-8.60099983215332 -24.31999969482422,-6.49399995803833 -23.246000289916992,-4.7729997634887695 C-18.299999237060547,3.2690000534057617 -9.741999626159668,8.60099983215332 0.020999999716877937,8.60099983215332 C9.739999771118164,8.60099983215332 18.29800033569336,3.2690000534057617 23.243000030517578,-4.7729997634887695 C24.319000244140625,-6.49399995803833 22.427000045776367,-8.60099983215332 20.577999114990234,-7.743000030517578 C14.642999649047852,-4.9039998054504395 7.589000225067139,-3.2260000705718994 0.020999999716877937,-3.2260000705718994 C-7.548999786376953,-3.2260000705718994 -14.600000381469727,-4.9039998054504395 -20.577999114990234,-7.743000030517578z"></path>
      </g>
      <g opacity="1" transform="matrix(1,0,0,1,48.23699951171875,80.12000274658203)">
        <path fill="rgb(201,49,44)" fill-opacity="1" d=" M0.023000000044703484,-13.397000312805176 C-3.634000062942505,-13.397000312805176 -7.159999847412109,-13.782999992370605 -10.515000343322754,-14.513999938964844 C-10.515000343322754,-14.513999938964844 -10.515000343322754,-0.5389999747276306 -10.515000343322754,-0.5389999747276306 C-10.515000343322754,-0.5389999747276306 -10.515000343322754,1.784000039100647 -10.515000343322754,1.784000039100647 C-10.515000343322754,1.784000039100647 -10.515000343322754,4.020999908447266 -10.515000343322754,4.020999908447266 C-10.515000343322754,9.82699966430664 -5.7829999923706055,14.513999938964844 0.023000000044703484,14.513999938964844 C5.784999847412109,14.513999938964844 10.515000343322754,9.82699966430664 10.515000343322754,4.020999908447266 C10.515000343322754,4.020999908447266 10.515000343322754,1.784000039100647 10.515000343322754,1.784000039100647 C10.515000343322754,1.784000039100647 10.515000343322754,-0.5389999747276306 10.515000343322754,-0.5389999747276306 C10.515000343322754,-0.5389999747276306 10.515000343322754,-14.513999938964844 10.515000343322754,-14.513999938964844 C7.160999774932861,-13.782999992370605 3.634000062942505,-13.397000312805176 0.023000000044703484,-13.397000312805176z"></path>
      </g>
    </g>
    <g transform="matrix(0.7900000214576721,0,0,0.7900000214576721,-7.260002136230469,-83.54000091552734)" opacity="1" style="display: block;">
      <g opacity="1" transform="matrix(1,0,0,1,47.90800094604492,48.0369987487793)">
        <path fill="rgb(250,204,23)" fill-opacity="1" d=" M47.005001068115234,-0.019999999552965164 C47.005001068115234,25.95599937438965 25.975000381469727,47.027000427246094 0,47.027000427246094 C-25.975000381469727,47.027000427246094 -47.005001068115234,25.95599937438965 -47.005001068115234,-0.019999999552965164 C-47.005001068115234,-25.9950008392334 -25.975000381469727,-47.027000427246094 0,-47.027000427246094 C25.975000381469727,-47.027000427246094 47.005001068115234,-25.9950008392334 47.005001068115234,-0.019999999552965164z"></path>
      </g>
      <g opacity="1" transform="matrix(1,0,0,1,72.61499786376953,41.263999938964844)">
        <path fill="rgb(82,40,19)" fill-opacity="1" d=" M5.0960001945495605,3.2679998874664307 C5.568999767303467,3.569999933242798 6.214000225067139,3.2679998874664307 6.214000225067139,2.6649999618530273 C6.214000225067139,-0.7749999761581421 3.4189999103546143,-3.569999933242798 0.020999999716877937,-3.569999933242798 C-3.4200000762939453,-3.569999933242798 -6.214000225067139,-0.7749999761581421 -6.214000225067139,2.6649999618530273 C-6.214000225067139,3.2679998874664307 -5.570000171661377,3.569999933242798 -5.0970001220703125,3.2679998874664307 C-3.5920000076293945,2.365999937057495 -1.871999979019165,1.8489999771118164 0.020999999716877937,1.8489999771118164 C1.8700000047683716,1.8489999771118164 3.5910000801086426,2.365999937057495 5.0960001945495605,3.2679998874664307z"></path>
      </g>
      <g opacity="1" transform="matrix(1,0,0,1,26.72800064086914,41.263999938964844)">
        <path fill="rgb(82,40,19)" fill-opacity="1" d=" M5.0970001220703125,3.2679998874664307 C5.568999767303467,3.569999933242798 6.214000225067139,3.2679998874664307 6.214000225067139,2.6649999618530273 C6.214000225067139,-0.7749999761581421 3.4179999828338623,-3.569999933242798 0.020999999716877937,-3.569999933242798 C-3.4200000762939453,-3.569999933242798 -6.214000225067139,-0.7749999761581421 -6.214000225067139,2.6649999618530273 C-6.214000225067139,3.2679998874664307 -5.568999767303467,3.569999933242798 -5.052999973297119,3.2679998874664307 C-3.5910000801086426,2.365999937057495 -1.871000051498413,1.8489999771118164 0.020999999716877937,1.8489999771118164 C1.8700000047683716,1.8489999771118164 3.634000062942505,2.365999937057495 5.0970001220703125,3.2679998874664307z"></path>
      </g>
      <g opacity="1" transform="matrix(1,0,0,1,72.44300079345703,25.804000854492188)">
        <path fill="rgb(82,40,19)" fill-opacity="1" d=" M3.246999979019165,4.8379998207092285 C-3.4189999103546143,4.8379998207092285 -6.300000190734863,-0.020999999716877937 -6.9019999504089355,-2.859999895095825 C-7.074999809265137,-3.677000045776367 -6.558000087738037,-4.494999885559082 -5.739999771118164,-4.666999816894531 C-4.923999786376953,-4.839000225067139 -4.105999946594238,-4.322000026702881 -3.8910000324249268,-3.505000114440918 C-3.76200008392334,-2.859999895095825 -2.257999897003174,2.7750000953674316 5.182000160217285,1.6130000352859497 C5.999000072479248,1.4839999675750732 6.775000095367432,2.0420000553131104 6.947000026702881,2.859999895095825 C7.074999809265137,3.7200000286102295 6.4730000495910645,4.49399995803833 5.656000137329102,4.624000072479248 C4.795000076293945,4.751999855041504 4.021999835968018,4.8379998207092285 3.246999979019165,4.8379998207092285z"></path>
      </g>
      <g opacity="1" transform="matrix(1,0,0,1,26.922000885009766,25.804000854492188)">
        <path fill="rgb(82,40,19)" fill-opacity="1" d=" M-3.2690000534057617,4.8379998207092285 C-4.044000148773193,4.8379998207092285 -4.816999912261963,4.751999855041504 -5.677000045776367,4.624000072479248 C-6.494999885559082,4.49399995803833 -7.052999973297119,3.7200000286102295 -6.923999786376953,2.859999895095825 C-6.795000076293945,2.0420000553131104 -6.021999835968018,1.4839999675750732 -5.203999996185303,1.6130000352859497 C2.4509999752044678,2.7750000953674316 3.8259999752044678,-3.246999979019165 3.9119999408721924,-3.505000114440918 C4.085000038146973,-4.322000026702881 4.9019999504089355,-4.839000225067139 5.718999862670898,-4.666999816894531 C6.535999774932861,-4.494999885559082 7.052999973297119,-3.677000045776367 6.879000186920166,-2.859999895095825 C6.2779998779296875,-0.020999999716877937 3.3970000743865967,4.8379998207092285 -3.2690000534057617,4.8379998207092285z"></path>
      </g>
      <g opacity="1" transform="matrix(1,0,0,1,48.57500076293945,64.74500274658203)">
        <path fill="rgb(82,40,19)" fill-opacity="1" d=" M-14.687000274658203,-12.817000389099121 C-17.437999725341797,-13.59000015258789 -20.277000427246094,-11.524999618530273 -20.277000427246094,-8.642999649047852 C-20.277000427246094,-8.642999649047852 -20.277000427246094,-8.60099983215332 -20.277000427246094,-8.60099983215332 C-20.277000427246094,3.6549999713897705 -11.20300006866455,13.59000015258789 -0.019999999552965164,13.59000015258789 C11.204000473022461,13.59000015258789 20.277000427246094,3.6549999713897705 20.277000427246094,-8.60099983215332 C20.277000427246094,-8.60099983215332 20.277000427246094,-8.642999649047852 20.277000427246094,-8.642999649047852 C20.277000427246094,-11.524999618530273 17.437999725341797,-13.59000015258789 14.685999870300293,-12.817000389099121 C10.342000007629395,-11.61299991607666 5.355000019073486,-10.967000007629395 -0.019999999552965164,-10.967000007629395 C-5.354000091552734,-10.967000007629395 -10.342000007629395,-11.61299991607666 -14.687000274658203,-12.817000389099121z"></path>
      </g>
      <g opacity="1" transform="matrix(1,0,0,1,48.57400131225586,76.59300231933594)">
        <path fill="rgb(253,253,253)" fill-opacity="1" d=" M-0.019999999552965164,1.7419999837875366 C3.9790000915527344,1.7419999837875366 7.71999979019165,0.4519999921321869 10.859000205993652,-1.7419999837875366 C10.859000205993652,-1.7419999837875366 -10.859000205993652,-1.7419999837875366 -10.859000205993652,-1.7419999837875366 C-7.718999862670898,0.4519999921321869 -3.9779999256134033,1.7419999837875366 -0.019999999552965164,1.7419999837875366z"></path>
      </g>
      <g opacity="1" transform="matrix(1,0,0,1,87.58200073242188,51.41299819946289)">
        <path fill="rgb(96,192,235)" fill-opacity="1" d=" M3.1610000133514404,-3.2239999771118164 C4.579999923706055,-2.322999954223633 5.697000026702881,-1.1610000133514404 6.214000225067139,0.4729999899864197 C6.686999797821045,2.0220000743865967 6.3429999351501465,3.9570000171661377 5.010000228881836,4.9029998779296875 C3.805000066757202,5.763000011444092 2.128000020980835,5.676000118255615 0.8370000123977661,4.989999771118164 C-1.2259999513626099,3.828000068664551 -2.559999942779541,1.2059999704360962 -3.375999927520752,-0.9470000267028809 C-4.021999835968018,-2.7090001106262207 -4.9670000076293945,-3.9549999237060547 -6.343999862670898,-5.031000137329102 C-6.686999797821045,-5.244999885559082 -6.4720001220703125,-5.763000011444092 -6.085999965667725,-5.71999979019165 C-3.1619999408721924,-5.333000183105469 0.5360000133514404,-4.815999984741211 3.1610000133514404,-3.2239999771118164z"></path>
      </g>
    </g>
    <g transform="matrix(0.7900000214576721,0,0,0.7900000214576721,-101.27000427246094,-83.54000091552734)" opacity="1" style="display: block;">
      <g opacity="1" transform="matrix(1,0,0,1,48.577999114990234,48.0369987487793)">
        <path fill="rgb(250,204,23)" fill-opacity="1" d=" M47.027000427246094,-0.019999999552965164 C47.027000427246094,25.95599937438965 25.954999923706055,47.027000427246094 -0.02199999988079071,47.027000427246094 C-25.996999740600586,47.027000427246094 -47.027000427246094,25.95599937438965 -47.027000427246094,-0.019999999552965164 C-47.027000427246094,-25.9950008392334 -25.996999740600586,-47.027000427246094 -0.02199999988079071,-47.027000427246094 C25.954999923706055,-47.027000427246094 47.027000427246094,-25.9950008392334 47.027000427246094,-0.019999999552965164z"></path>
      </g>
      <g opacity="1" transform="matrix(1,0,0,1,48.57899856567383,61.111000061035156)">
        <path fill="rgb(253,253,253)" fill-opacity="1" d=" M19.416000366210938,14.298999786376953 C19.416000366210938,14.298999786376953 -19.417999267578125,14.298999786376953 -19.417999267578125,14.298999786376953 C-21.91200065612793,14.298999786376953 -23.888999938964844,12.277999877929688 -23.888999938964844,9.784000396728516 C-23.888999938964844,9.784000396728516 -23.888999938964844,-9.782999992370605 -23.888999938964844,-9.782999992370605 C-23.888999938964844,-12.277000427246094 -21.91200065612793,-14.298999786376953 -19.417999267578125,-14.298999786376953 C-19.417999267578125,-14.298999786376953 19.416000366210938,-14.298999786376953 19.416000366210938,-14.298999786376953 C21.868000030517578,-14.298999786376953 23.888999938964844,-12.277000427246094 23.888999938964844,-9.782999992370605 C23.888999938964844,-9.782999992370605 23.888999938964844,9.784000396728516 23.888999938964844,9.784000396728516 C23.888999938964844,12.277999877929688 21.868000030517578,14.298999786376953 19.416000366210938,14.298999786376953z"></path>
      </g>
      <g opacity="1" transform="matrix(1,0,0,1,74.20999908447266,53.4119987487793)">
        <path fill="rgb(253,253,253)" fill-opacity="1" d=" M-2.946000099182129,6.215000152587891 C-2.946000099182129,6.215000152587891 21.781999588012695,-6.170000076293945 21.781999588012695,-6.170000076293945 C21.781999588012695,-6.170000076293945 21.781999588012695,-6.428999900817871 21.781999588012695,-6.428999900817871 C21.781999588012695,-8.019000053405762 21.695999145507812,-9.609999656677246 21.524999618530273,-11.15999984741211 C21.524999618530273,-11.15999984741211 -21.781999588012695,10.517000198364258 -21.781999588012695,10.517000198364258 C-21.781999588012695,10.517000198364258 18.899999618530273,11.15999984741211 18.899999618530273,11.15999984741211 C19.50200080871582,9.699000358581543 19.97599983215332,8.151000022888184 20.4060001373291,6.6020002365112305 C20.4060001373291,6.6020002365112305 -2.946000099182129,6.215000152587891 -2.946000099182129,6.215000152587891z"></path>
      </g>
      <g opacity="1" transform="matrix(1,0,0,1,22.926000595092773,53.4119987487793)">
        <path fill="rgb(253,253,253)" fill-opacity="1" d=" M-21.54599952697754,-11.15999984741211 C-21.716999053955078,-9.609999656677246 -21.80299949645996,-8.019000053405762 -21.80299949645996,-6.428999900817871 C-21.80299949645996,-6.428999900817871 -21.80299949645996,-6.170000076293945 -21.80299949645996,-6.170000076293945 C-21.80299949645996,-6.170000076293945 2.9670000076293945,6.215000152587891 2.9670000076293945,6.215000152587891 C2.9670000076293945,6.215000152587891 -20.385000228881836,6.6020002365112305 -20.385000228881836,6.6020002365112305 C-19.99799919128418,8.151000022888184 -19.482999801635742,9.699000358581543 -18.92300033569336,11.15999984741211 C-18.92300033569336,11.15999984741211 21.80299949645996,10.517000198364258 21.80299949645996,10.517000198364258 C21.80299949645996,10.517000198364258 -21.54599952697754,-11.15999984741211 -21.54599952697754,-11.15999984741211z"></path>
      </g>
      <g opacity="1" transform="matrix(1,0,0,1,28.38800048828125,37.6510009765625)">
        <path fill="rgb(82,40,19)" fill-opacity="1" d=" M-0.4300000071525574,3.3959999084472656 C-2.5810000896453857,3.3959999084472656 -4.730999946594238,2.8380000591278076 -6.579999923706055,1.7200000286102295 C-7.656000137329102,1.0759999752044678 -7.999000072479248,-0.34299999475479126 -7.355000019073486,-1.4190000295639038 C-6.709000110626221,-2.49399995803833 -5.289000034332275,-2.88100004196167 -4.216000080108643,-2.193000078201294 C-1.7630000114440918,-0.7300000190734863 1.718999981880188,-0.9020000100135803 3.999000072479248,-2.621999979019165 C5.031000137329102,-3.3959999084472656 6.493000030517578,-3.181999921798706 7.223999977111816,-2.1500000953674316 C7.999000072479248,-1.1169999837875366 7.783999919891357,0.3009999990463257 6.750999927520752,1.0759999752044678 C4.686999797821045,2.5820000171661377 2.1059999465942383,3.3959999084472656 -0.4300000071525574,3.3959999084472656z"></path>
      </g>
      <g opacity="1" transform="matrix(1,0,0,1,67.69400024414062,37.6510009765625)">
        <path fill="rgb(82,40,19)" fill-opacity="1" d=" M0.4320000112056732,3.3959999084472656 C-2.1500000953674316,3.3959999084472656 -4.730000019073486,2.5820000171661377 -6.794000148773193,1.0759999752044678 C-7.7820000648498535,0.3009999990463257 -8,-1.1169999837875366 -7.267000198364258,-2.1500000953674316 C-6.49399995803833,-3.181999921798706 -5.073999881744385,-3.3959999084472656 -4.041999816894531,-2.621999979019165 C-1.7200000286102295,-0.9020000100135803 1.7200000286102295,-0.7300000190734863 4.171999931335449,-2.193000078201294 C5.289999961853027,-2.88100004196167 6.664999961853027,-2.49399995803833 7.354000091552734,-1.4190000295639038 C7.999000072479248,-0.34299999475479126 7.61299991607666,1.0759999752044678 6.5370001792907715,1.7200000286102295 C4.688000202178955,2.8380000591278076 2.5390000343322754,3.3959999084472656 0.4320000112056732,3.3959999084472656z"></path>
      </g>
    </g>
  </g>
</svg>
